product id,ProductName,Brand,Price,Quantity,Category
1,Strawberry Milkshake,Cavins,120,5,Bakery & Dairy
2, Milk,Tasties,110,5,Bakery & Dairy
3,Fresh Bread,The Baker's Dozen,119,5,Bakery & Dairy
4,Organic - Brown Sugar,BB Royal,60,5,Bakery & Dairy
5,Bathing Bar Soap - Original,Dettol,240,5,Beauty & Hygiene
6,Strong Teeth Anticavity Toothpaste ,Colgate,488,5,Beauty & Hygiene
7,Antiseptic Disinfectant Liquid,Dettol,214.06,5,Beauty & Hygiene
8,Cream Beauty Bathing Bar,Dove,128,5,Beauty & Hygiene
9,Bathing Soap - Skincare,Dettol,80,5,Beauty & Hygiene
10,Beauty Germ Removal Facewash,Ponds,349,5,Beauty & Hygiene
11,Body Lotion - For Very Dry Skin,Nivea,1197,5,Beauty & Hygiene
12,Stunning Black Shine Hair Shampoo,Sunsilk,615,5,Beauty & Hygiene
13,Mouthwash - Plax Pepper Mint - Alcohol Free,Colgate,450,5,Beauty & Hygiene
14,Shower Gel - Aroma Absolute Relax,Palmolive,229,5,Beauty & Hygiene
15,Tea,Red Label,285,5,Beverages
16,Tender Coconut Water,Fresho,300,5,Beverages
17,Botteld Water (12 pack),Fresho,150,5,Beverages
18,Disinfectant Toilet Cleaner Liquid - Original,Harpic,93,5,Cleaning & Household
19,Eggs - Regular,Fresho,250,5,Poultry & Fish
20,Boneless Chicken ,Fresho,623,5,Poultry & Fish
21,Cashew/Godambi - Whole,BB Royal,200,5,Foodgrains
22,Organic Brown Rice,BB Royal,95,5,Foodgrains
23,Basmati Rice - Premium,BB Royal,280,5,Foodgrains
24,50% Less Calories Sugar,Sugarlite,30,5,Foodgrains
25,Onion (Loose),Fresho,69.75,5,Fruits & Vegetables
26,Tomato - Local (Loose),Fresho,12.99,5,Fruits & Vegetables
27,Garlic (Loose),Fresho,35.39,5,Fruits & Vegetables
28,Chilli - Green Long - Medium (Loose),Fresho,57.79,5,Fruits & Vegetables
29,Frozen Green Peas,Fresho,135,5,Fruits & Vegetables
291,Frozen Green Peas,BirdsEye,135,5,Fruits & Vegetables
30,Frozen Carrots,Fresho,135,5,Fruits & Vegetables
31,Extra Virgin Olive Oil,BORGES,6000,5,Gourmet & World Food
32,Mixed Fruit,Fresho Signature,85,5,Gourmet & World Food
33,Oats Breakfast Cereal,Quaker,199,5,Snacks & Branded Foods
34,Green Peas,Yummiez,150,5,Snacks & Branded Foods
35,Chocolate Home - Treats Pack,Cadbury Dairy Milk,447,5,Snacks & Branded Foods
36,100% Pure Honey,BB Royal,440,5,Snacks & Branded Foods